Comparing U2OS and HEK293 RNA Seq
…
library("org.Hs.eg.db")
library(tidyverse)
library(RColorBrewer)
library(ggplot2)
library(ggrepel)

HEK293_UCHL5_knockout.full.differential <- read_tsv("~/hb_nf_RNASeq/Diff_Abundance/secondrunwithontology20241010/tables/differential/UCHL5_knockout.deseq2.results.tsv")

#load data into a frame
symbolHB <- HEK293_UCHL5_knockout.full.differential
#convert data to tibble
as_tibble(symbolHB)

# A tibble: 31,128 × 6
   gene_id         baseMean log2FoldChange  lfcSE   pvalue      padj
   <chr>              <dbl>          <dbl>  <dbl>    <dbl>     <dbl>
 1 ENSG00000000003 4624.           -0.125  0.0456 6.03e- 3  1.50e- 2
 2 ENSG00000000005   60.7          -0.683  0.289  3.52e- 3  9.16e- 3
 3 ENSG00000000419 1373.           -0.275  0.0674 3.57e- 5  1.27e- 4
 4 ENSG00000000457  354.            0.253  0.127  3.83e- 2  7.86e- 2
 5 ENSG00000000460  864.           -0.323  0.0891 2.08e- 4  6.63e- 4
 6 ENSG00000000938    0.435         0.0585 0.644  5.79e- 1 NA       
 7 ENSG00000001036 3082.            0.568  0.0496 8.70e-31  1.43e-29
 8 ENSG00000001084 2364.           -0.198  0.0754 7.68e- 3  1.87e- 2
 9 ENSG00000001167 2522.           -0.441  0.0515 6.08e-18  5.60e-17
10 ENSG00000001460  728.            0.307  0.0913 5.72e- 4  1.71e- 3
# ℹ 31,118 more rows
…
library("org.Hs.eg.db")
library(tidyverse)
library(RColorBrewer)
library(ggplot2)
library(ggrepel)

U2OS_UCHL5_knockout.full.differential <- read_tsv("/media/adoig/64gbs/GChr38AtacSeq/U2OS RNASEQ/U2OS Differential Abundance without outlier/tables/differential/UCHL5_knockout.deseq2.results.tsv")

#load data into a frame
symbolU2OS <- U2OS_UCHL5_knockout.full.differential
#convert data to tibble
as_tibble(symbolU2OS)

# A tibble: 39,337 × 6
   gene_id         baseMean log2FoldChange  lfcSE  pvalue    padj
   <chr>              <dbl>          <dbl>  <dbl>   <dbl>   <dbl>
 1 ENSG00000000003   2767.        -0.0825  0.0892 0.146    0.517 
 2 ENSG00000000419   4067.        -0.00873 0.0847 0.867    0.969 
 3 ENSG00000000457    405.         0.0671  0.123  0.263    0.667 
 4 ENSG00000000460   2563.         0.215   0.115  0.00416  0.0580
 5 ENSG00000000971     12.2       -0.0930  0.296  0.106   NA     
 6 ENSG00000001036   2831.         0.141   0.100  0.0281   0.212 
 7 ENSG00000001084   3631.        -0.0179  0.0899 0.737    0.936 
 8 ENSG00000001167   5893.         0.187   0.112  0.00900  0.0997
 9 ENSG00000001460    514.        -0.0668  0.112  0.259    0.664 
10 ENSG00000001461   1013.         0.0740  0.117  0.221    0.619 
# ℹ 39,327 more rows
…
sigHEK <- filter(symbolHB, padj < 0.05)
  
sigHEK <- select(sigHEK, gene_id)

listsigHEK <- as.list(sigHEK)

sigU2OS <- filter(symbolU2OS, padj <0.05)

sigU2OS <- select(sigU2OS, gene_id)
  
listsigU2OS <- as.list(sigU2OS)

inner_join(sigU2OS, sigHEK, by = "gene_id")

# A tibble: 671 × 1
   gene_id        
   <chr>          
 1 ENSG00000004846
 2 ENSG00000005194
 3 ENSG00000006283
 4 ENSG00000006468
 5 ENSG00000008311
 6 ENSG00000008394
 7 ENSG00000009709
 8 ENSG00000013364
 9 ENSG00000015568
10 ENSG00000018236
# ℹ 661 more rows
…
